<?xml version="1.0" encoding="UTF-8"?>
<svg width="50" height="20" xmlns="http://www.w3.org/2000/svg" xmlns:xlink="http://www.w3.org/1999/xlink">
    <linearGradient id="b" x2="0" y2="100%">
        <stop offset="0" stop-color="#bbb" stop-opacity=".1"/>
        <stop offset="1" stop-opacity=".1"/>
    </linearGradient>
    <mask id="badge">
        <rect width="50" height="20" rx="3" fill="#FFFFFF"/>
    </mask>
    <g mask="url(#badge)">
        <path fill="#DDBB11" d="M0 0h50v20h-50z"/>
        <path fill="url(#b)" d="M0 0h50v20H0z"/>
    </g>
    <g fill="#FFFFFF" text-anchor="middle" font-family="DejaVu Sans,Verdana,Geneva,sans-serif" font-size="11">
        <text x="26" y="15" fill="#010101" fill-opacity=".3">byellow</text>
        <text x="25" y="14">byellow</text>
    </g>
</svg>
